Suite/Test/Step Name,Browser,Description,Start time,End time,Duration,Status
24.7 Instrument Configuration CRUD,Chrome 73.0.3683.86,,2019-04-08 10:44:19,2019-04-08 10:47:31,3m - 12.856s,PASSED
,,,,,,
Test Cases/Instrument Configuration/1. 24.7 Instrument Configuration - Create,Chrome 73.0.3683.86,,2019-04-08 10:44:20,2019-04-08 10:45:26,1m - 5.912s,PASSED
"openBrowser("""")",Chrome 73.0.3683.86,Prereqs: Have a participant Registered,2019-04-08 10:44:24,2019-04-08 10:44:32,8.209s,PASSED
"navigateToUrl(""http://randoxqcv2-stes.azurewebsites.net/Account/Login?RememberMe=False&SelectionIsEmpty=True"")",Chrome 73.0.3683.86,,2019-04-08 10:44:32,2019-04-08 10:44:34,2.118s,PASSED
maximizeWindow(),Chrome 73.0.3683.86,,2019-04-08 10:44:34,2019-04-08 10:44:36,1.217s,PASSED
"setText(findTestObject(""Acusera247/Login/input_UserNameField""), ""daveau9@sharklasers.com"")",Chrome 73.0.3683.86,,2019-04-08 10:44:36,2019-04-08 10:44:36,0.485s,PASSED
"setEncryptedText(findTestObject(""Acusera247/Login/input_PasswordField""), ""ZM/VR/a+KpRW0CGCfSq1yw=="")",Chrome 73.0.3683.86,,2019-04-08 10:44:36,2019-04-08 10:44:36,0.238s,PASSED
"click(findTestObject(""Acusera247/Login/button_Log in""))",Chrome 73.0.3683.86,,2019-04-08 10:44:36,2019-04-08 10:44:39,2.206s,PASSED
delay(2),Chrome 73.0.3683.86,,2019-04-08 10:44:39,2019-04-08 10:44:41,2.225s,PASSED
"click(findTestObject(""Acusera247/Home Page/button_Acusera24.7""))",Chrome 73.0.3683.86,,2019-04-08 10:44:41,2019-04-08 10:44:44,2.700s,PASSED
delay(2),Chrome 73.0.3683.86,,2019-04-08 10:44:44,2019-04-08 10:44:46,2.010s,PASSED
"click(findTestObject(""Acusera247/Home Page/button_ConfgurationTile""))",Chrome 73.0.3683.86,"Navigate to the ""Instrument Configuration"" page",2019-04-08 10:44:46,2019-04-08 10:44:46,0.347s,PASSED
delay(2),Chrome 73.0.3683.86,,2019-04-08 10:44:46,2019-04-08 10:44:48,2.022s,PASSED
driver = getWebDriver(),Chrome 73.0.3683.86,,2019-04-08 10:44:48,2019-04-08 10:44:48,0.078s,PASSED
"Table = driver.findElement(By.xpath(""//table/tbody""))",Chrome 73.0.3683.86,To locate table,2019-04-08 10:44:48,2019-04-08 10:44:48,0.194s,PASSED
"rows_table = Table.findElements(By.tagName(""tr""))",Chrome 73.0.3683.86,To locate rows of table it will Capture all the rows available in the table,2019-04-08 10:44:48,2019-04-08 10:44:48,0.061s,PASSED
rows_count = rows_table.size(),Chrome 73.0.3683.86,To calculate no of rows In table,2019-04-08 10:44:48,2019-04-08 10:44:48,0.002s,PASSED
log = new com.kms.katalon.core.logging.KeywordLogger(),Chrome 73.0.3683.86,,2019-04-08 10:44:48,2019-04-08 10:44:48,0.002s,PASSED
"log.logInfo(""Rows = "" + rows_count)",Chrome 73.0.3683.86,,2019-04-08 10:44:48,2019-04-08 10:44:48,0.002s,PASSED
if (rows_count > 0),Chrome 73.0.3683.86,,2019-04-08 10:44:48,2019-04-08 10:44:55,6.766s,PASSED
delay(1),Chrome 73.0.3683.86,,2019-04-08 10:44:55,2019-04-08 10:44:56,1.011s,PASSED
"click(findTestObject(""Acusera247/Instrument Configuration/button_Add New""))",Chrome 73.0.3683.86,"Click on the ""Add New"" button",2019-04-08 10:44:56,2019-04-08 10:44:56,0.144s,PASSED
delay(2),Chrome 73.0.3683.86,,2019-04-08 10:44:56,2019-04-08 10:44:58,2.005s,PASSED
"setText(findTestObject(""Acusera247/Instrument Configuration/input_InstrumentName""), ""Instrument 1"")",Chrome 73.0.3683.86,Enter an Instrument Name,2019-04-08 10:44:58,2019-04-08 10:44:58,0.261s,PASSED
"click(findTestObject(""Acusera247/Instrument Configuration/dropdown_Manufacturer""))",Chrome 73.0.3683.86,Click on the Manufacturer dropdown,2019-04-08 10:44:58,2019-04-08 10:44:59,0.177s,PASSED
delay(1),Chrome 73.0.3683.86,,2019-04-08 10:44:59,2019-04-08 10:45:00,1.010s,PASSED
"setText(findTestObject(""Acusera247/Instrument Configuration/input_ManufacturerFilter""), ""roche"")",Chrome 73.0.3683.86,"Filter out the list to show manufacturers containing ""Roche"" ",2019-04-08 10:45:00,2019-04-08 10:45:00,0.227s,PASSED
delay(1),Chrome 73.0.3683.86,,2019-04-08 10:45:00,2019-04-08 10:45:01,1.009s,PASSED
"click(findTestObject(""Acusera247/Instrument Configuration/list_Manufacturer_Roche""), STOP_ON_FAILURE)",Chrome 73.0.3683.86,"Select ""Roche"" within the dropdown list",2019-04-08 10:45:01,2019-04-08 10:45:01,0.144s,PASSED
delay(1),Chrome 73.0.3683.86,,2019-04-08 10:45:01,2019-04-08 10:45:02,1.008s,PASSED
"click(findTestObject(""Acusera247/Instrument Configuration/dropdown_Group""))",Chrome 73.0.3683.86,"Click on the ""Group"" dropdown",2019-04-08 10:45:02,2019-04-08 10:45:02,0.096s,PASSED
delay(1),Chrome 73.0.3683.86,,2019-04-08 10:45:02,2019-04-08 10:45:03,1.005s,PASSED
"click(findTestObject(""Acusera247/Instrument Configuration/list_Group_Cobas""))",Chrome 73.0.3683.86,Select Cobas from the group,2019-04-08 10:45:03,2019-04-08 10:45:03,0.118s,PASSED
delay(1),Chrome 73.0.3683.86,,2019-04-08 10:45:03,2019-04-08 10:45:04,1.007s,PASSED
"click(findTestObject(""Acusera247/Instrument Configuration/dropdown_Model""))",Chrome 73.0.3683.86,Click on the Model dropdown,2019-04-08 10:45:04,2019-04-08 10:45:04,0.154s,PASSED
delay(1),Chrome 73.0.3683.86,,2019-04-08 10:45:04,2019-04-08 10:45:05,1.011s,PASSED
"click(findTestObject(""Acusera247/Instrument Configuration/list_Model_Cobas c501""))",Chrome 73.0.3683.86,Select Cobas 501 from the list,2019-04-08 10:45:05,2019-04-08 10:45:06,0.114s,PASSED
delay(1),Chrome 73.0.3683.86,,2019-04-08 10:45:06,2019-04-08 10:45:07,1.005s,PASSED
"click(findTestObject(""Acusera247/Instrument Configuration/button_SaveNEW""))",Chrome 73.0.3683.86,Click the Save button to save the Configuration,2019-04-08 10:45:07,2019-04-08 10:45:07,0.114s,PASSED
delay(2),Chrome 73.0.3683.86,,2019-04-08 10:45:07,2019-04-08 10:45:09,2.005s,PASSED
"verifyElementText(findTestObject(""Acusera247/Instrument Configuration/alert_SuccessConfigCreated""), ""Success! Instrument configuration created"", CONTINUE_ON_FAILURE)",Chrome 73.0.3683.86,,2019-04-08 10:45:09,2019-04-08 10:45:09,0.157s,PASSED
"click(findTestObject(""Acusera247/Instrument Configuration/alert_SuccessConfigCreated""))",Chrome 73.0.3683.86,,2019-04-08 10:45:09,2019-04-08 10:45:09,0.079s,PASSED
delay(1),Chrome 73.0.3683.86,,2019-04-08 10:45:09,2019-04-08 10:45:10,1.005s,PASSED
"click(findTestObject(""Acusera247/Instrument Configuration/button_Add New""))",Chrome 73.0.3683.86,"Click on the ""Add New"" button to Add an additional Instrument",2019-04-08 10:45:10,2019-04-08 10:45:10,0.146s,PASSED
delay(2),Chrome 73.0.3683.86,,2019-04-08 10:45:10,2019-04-08 10:45:12,2.009s,PASSED
"setText(findTestObject(""Acusera247/Instrument Configuration/input_InstrumentName""), ""Instrument 2"")",Chrome 73.0.3683.86,Enter an Instrument Name,2019-04-08 10:45:12,2019-04-08 10:45:12,0.228s,PASSED
delay(1),Chrome 73.0.3683.86,,2019-04-08 10:45:12,2019-04-08 10:45:13,1.007s,PASSED
"click(findTestObject(""Acusera247/Instrument Configuration/dropdown_Manufacturer""))",Chrome 73.0.3683.86,Click on the Manufacturer dropdown,2019-04-08 10:45:13,2019-04-08 10:45:14,0.198s,PASSED
delay(1),Chrome 73.0.3683.86,,2019-04-08 10:45:14,2019-04-08 10:45:15,1.004s,PASSED
"setText(findTestObject(""Acusera247/Instrument Configuration/input_ManufacturerFilter""), ""roche"")",Chrome 73.0.3683.86,"Filter out the list to show manufacturers containing ""Roche"" ",2019-04-08 10:45:15,2019-04-08 10:45:15,0.146s,PASSED
delay(1),Chrome 73.0.3683.86,,2019-04-08 10:45:15,2019-04-08 10:45:16,1.006s,PASSED
"click(findTestObject(""Acusera247/Instrument Configuration/list_Manufacturer_Roche""), STOP_ON_FAILURE)",Chrome 73.0.3683.86,"Select ""Roche"" within the dropdown list",2019-04-08 10:45:16,2019-04-08 10:45:16,0.090s,PASSED
delay(1),Chrome 73.0.3683.86,,2019-04-08 10:45:16,2019-04-08 10:45:17,1.008s,PASSED
"click(findTestObject(""Acusera247/Instrument Configuration/dropdown_Group""))",Chrome 73.0.3683.86,"Click on the ""Group"" dropdown",2019-04-08 10:45:17,2019-04-08 10:45:17,0.100s,PASSED
delay(1),Chrome 73.0.3683.86,,2019-04-08 10:45:17,2019-04-08 10:45:18,1.005s,PASSED
"click(findTestObject(""Acusera247/Instrument Configuration/list_Group_Cobas""))",Chrome 73.0.3683.86,Select Cobas from the group,2019-04-08 10:45:18,2019-04-08 10:45:18,0.134s,PASSED
delay(1),Chrome 73.0.3683.86,,2019-04-08 10:45:18,2019-04-08 10:45:19,1.009s,PASSED
"click(findTestObject(""Acusera247/Instrument Configuration/dropdown_Model""))",Chrome 73.0.3683.86,Click on the Model dropdown,2019-04-08 10:45:19,2019-04-08 10:45:19,0.100s,PASSED
delay(1),Chrome 73.0.3683.86,,2019-04-08 10:45:19,2019-04-08 10:45:20,1.005s,PASSED
"click(findTestObject(""Acusera247/Instrument Configuration/list_Model_Cobas c501""))",Chrome 73.0.3683.86,Select Cobas 501 from the list,2019-04-08 10:45:20,2019-04-08 10:45:20,0.122s,PASSED
delay(1),Chrome 73.0.3683.86,,2019-04-08 10:45:20,2019-04-08 10:45:21,1.006s,PASSED
"click(findTestObject(""Acusera247/Instrument Configuration/button_SaveNEW""))",Chrome 73.0.3683.86,Click the Save button to save the second Instrument Configuration,2019-04-08 10:45:21,2019-04-08 10:45:21,0.096s,PASSED
delay(2),Chrome 73.0.3683.86,,2019-04-08 10:45:21,2019-04-08 10:45:23,2.012s,PASSED
"verifyElementText(findTestObject(""Acusera247/Instrument Configuration/alert_SuccessConfigCreated""), ""Success! Instrument configuration created"", CONTINUE_ON_FAILURE)",Chrome 73.0.3683.86,,2019-04-08 10:45:23,2019-04-08 10:45:23,0.073s,PASSED
"click(findTestObject(""Acusera247/Instrument Configuration/alert_SuccessConfigCreated""))",Chrome 73.0.3683.86,,2019-04-08 10:45:23,2019-04-08 10:45:24,0.073s,PASSED
delay(1),Chrome 73.0.3683.86,,2019-04-08 10:45:24,2019-04-08 10:45:25,1.007s,PASSED
"verifyElementText(findTestObject(""Acusera247/Instrument Configuration/td_InstrumentNameRow1""), ""Instrument 1"")",Chrome 73.0.3683.86,verify that the Instrument Name is saved to the grid view,2019-04-08 10:45:25,2019-04-08 10:45:25,0.086s,PASSED
"verifyElementText(findTestObject(""Acusera247/Instrument Configuration/td_ManufacturerRow1""), ""Roche"")",Chrome 73.0.3683.86,verify that the Manufacturer is saved to the grid view,2019-04-08 10:45:25,2019-04-08 10:45:25,0.059s,PASSED
"verifyElementText(findTestObject(""Acusera247/Instrument Configuration/td_GroupRow1""), ""Cobas"")",Chrome 73.0.3683.86,verify that the Group is saved to the grid view,2019-04-08 10:45:25,2019-04-08 10:45:25,0.044s,PASSED
"verifyElementText(findTestObject(""Acusera247/Instrument Configuration/td_ModelRow1""), ""Cobas c501"")",Chrome 73.0.3683.86,verify that the Model is saved to the grid view,2019-04-08 10:45:25,2019-04-08 10:45:25,0.045s,PASSED
"verifyElementText(findTestObject(""Acusera247/Instrument Configuration/td_InstrumentNameRow2""), ""Instrument 2"")",Chrome 73.0.3683.86,verify that the Instrument Name is saved to the grid view,2019-04-08 10:45:25,2019-04-08 10:45:25,0.039s,PASSED
"verifyElementText(findTestObject(""Acusera247/Instrument Configuration/td_ManufacturerRow2""), ""Roche"")",Chrome 73.0.3683.86,verify that the Manufacturer is saved to the grid view,2019-04-08 10:45:25,2019-04-08 10:45:25,0.041s,PASSED
"verifyElementText(findTestObject(""Acusera247/Instrument Configuration/td_GroupRow2""), ""Cobas"")",Chrome 73.0.3683.86,verify that the Group is saved to the grid view,2019-04-08 10:45:25,2019-04-08 10:45:25,0.043s,PASSED
"verifyElementText(findTestObject(""Acusera247/Instrument Configuration/td_ModelRow2""), ""Cobas c501"")",Chrome 73.0.3683.86,verify that the Model is saved to the grid view,2019-04-08 10:45:25,2019-04-08 10:45:25,0.045s,PASSED
closeBrowser(),Chrome 73.0.3683.86,,2019-04-08 10:45:25,2019-04-08 10:45:26,0.748s,PASSED
,,,,,,
Test Cases/Instrument Configuration/2. 24.7 Instrument Configuration - Validation,Chrome 73.0.3683.86,,2019-04-08 10:45:26,2019-04-08 10:46:24,58.142s,PASSED
"openBrowser("""")",Chrome 73.0.3683.86,Prereqs: Have a participant Registered,2019-04-08 10:45:29,2019-04-08 10:45:32,2.829s,PASSED
"navigateToUrl(""http://randoxqcv2-stes.azurewebsites.net/Account/Login?RememberMe=False&SelectionIsEmpty=True"")",Chrome 73.0.3683.86,,2019-04-08 10:45:32,2019-04-08 10:45:34,1.870s,PASSED
maximizeWindow(),Chrome 73.0.3683.86,,2019-04-08 10:45:34,2019-04-08 10:45:35,1.124s,PASSED
"setText(findTestObject(""Acusera247/Login/input_UserNameField""), ""daveau9@sharklasers.com"")",Chrome 73.0.3683.86,,2019-04-08 10:45:35,2019-04-08 10:45:35,0.170s,PASSED
"setEncryptedText(findTestObject(""Acusera247/Login/input_PasswordField""), ""ZM/VR/a+KpRW0CGCfSq1yw=="")",Chrome 73.0.3683.86,,2019-04-08 10:45:35,2019-04-08 10:45:35,0.085s,PASSED
"click(findTestObject(""Acusera247/Login/button_Log in""))",Chrome 73.0.3683.86,,2019-04-08 10:45:35,2019-04-08 10:45:37,2.215s,PASSED
delay(2),Chrome 73.0.3683.86,,2019-04-08 10:45:37,2019-04-08 10:45:39,2.011s,PASSED
"click(findTestObject(""Acusera247/Home Page/button_Acusera24.7""))",Chrome 73.0.3683.86,,2019-04-08 10:45:39,2019-04-08 10:45:41,2.322s,PASSED
delay(2),Chrome 73.0.3683.86,,2019-04-08 10:45:41,2019-04-08 10:45:43,2.010s,PASSED
"click(findTestObject(""Acusera247/Home Page/button_ConfgurationTile""))",Chrome 73.0.3683.86,"Navigate to the ""Instrument Configuration"" page",2019-04-08 10:45:43,2019-04-08 10:45:44,0.363s,PASSED
delay(2),Chrome 73.0.3683.86,,2019-04-08 10:45:44,2019-04-08 10:45:46,2.012s,PASSED
"click(findTestObject(""Acusera247/Instrument Configuration/button_Add New""))",Chrome 73.0.3683.86,"Click on the ""Add New"" button",2019-04-08 10:45:46,2019-04-08 10:45:46,0.160s,PASSED
delay(2),Chrome 73.0.3683.86,,2019-04-08 10:45:46,2019-04-08 10:45:48,2.011s,PASSED
"click(findTestObject(""Acusera247/Instrument Configuration/button_SaveNEW""))",Chrome 73.0.3683.86,Click Save to get the Validation Alert Message,2019-04-08 10:45:48,2019-04-08 10:45:48,0.133s,PASSED
delay(1),Chrome 73.0.3683.86,,2019-04-08 10:45:48,2019-04-08 10:45:49,1.007s,PASSED
"verifyElementText(findTestObject(""Acusera247/Instrument Configuration/alert_InformationCompleteFields""), ""Information Please complete all configuration details before saving."", CONTINUE_ON_FAILURE)",Chrome 73.0.3683.86,Verify that the validation message displays the correct text,2019-04-08 10:45:49,2019-04-08 10:45:49,0.107s,PASSED
"click(findTestObject(""Acusera247/Instrument Configuration/alert_InformationCompleteFields""))",Chrome 73.0.3683.86,,2019-04-08 10:45:49,2019-04-08 10:45:49,0.082s,PASSED
delay(2),Chrome 73.0.3683.86,,2019-04-08 10:45:49,2019-04-08 10:45:51,2.008s,PASSED
"setText(findTestObject(""Acusera247/Instrument Configuration/input_InstrumentName""), ""Instrument 1"")",Chrome 73.0.3683.86,,2019-04-08 10:45:51,2019-04-08 10:45:52,0.222s,PASSED
"click(findTestObject(""Acusera247/Instrument Configuration/button_SaveNEW""))",Chrome 73.0.3683.86,Click Save to get the Validation Alert Message,2019-04-08 10:45:52,2019-04-08 10:45:52,0.053s,PASSED
delay(1),Chrome 73.0.3683.86,,2019-04-08 10:45:52,2019-04-08 10:45:53,1.005s,PASSED
"verifyElementText(findTestObject(""Acusera247/Instrument Configuration/alert_InformationCompleteFields""), ""Information Please complete all configuration details before saving."", CONTINUE_ON_FAILURE)",Chrome 73.0.3683.86,Verify that the validation message displays the correct text,2019-04-08 10:45:53,2019-04-08 10:45:53,0.082s,PASSED
"click(findTestObject(""Acusera247/Instrument Configuration/alert_InformationCompleteFields""))",Chrome 73.0.3683.86,,2019-04-08 10:45:53,2019-04-08 10:45:53,0.078s,PASSED
delay(2),Chrome 73.0.3683.86,,2019-04-08 10:45:53,2019-04-08 10:45:55,2.005s,PASSED
"click(findTestObject(""Acusera247/Instrument Configuration/dropdown_Manufacturer""))",Chrome 73.0.3683.86,,2019-04-08 10:45:55,2019-04-08 10:45:55,0.234s,PASSED
delay(2),Chrome 73.0.3683.86,,2019-04-08 10:45:55,2019-04-08 10:45:57,2.017s,PASSED
"setText(findTestObject(""Acusera247/Instrument Configuration/input_ManufacturerFilter""), ""roche"")",Chrome 73.0.3683.86,,2019-04-08 10:45:57,2019-04-08 10:45:57,0.176s,PASSED
delay(2),Chrome 73.0.3683.86,,2019-04-08 10:45:57,2019-04-08 10:45:59,2.006s,PASSED
"click(findTestObject(""Acusera247/Instrument Configuration/list_Manufacturer_Roche""))",Chrome 73.0.3683.86,,2019-04-08 10:45:59,2019-04-08 10:45:59,0.150s,PASSED
delay(2),Chrome 73.0.3683.86,,2019-04-08 10:45:59,2019-04-08 10:46:01,2.005s,PASSED
"click(findTestObject(""Acusera247/Instrument Configuration/button_SaveNEW""))",Chrome 73.0.3683.86,Click Save to get the Validation Alert Message,2019-04-08 10:46:01,2019-04-08 10:46:02,0.098s,PASSED
delay(1),Chrome 73.0.3683.86,,2019-04-08 10:46:02,2019-04-08 10:46:03,1.011s,PASSED
"verifyElementText(findTestObject(""Acusera247/Instrument Configuration/alert_InformationCompleteFields""), ""Information Please complete all configuration details before saving."", CONTINUE_ON_FAILURE)",Chrome 73.0.3683.86,Verify that the validation message displays the correct text,2019-04-08 10:46:03,2019-04-08 10:46:03,0.075s,PASSED
"click(findTestObject(""Acusera247/Instrument Configuration/alert_InformationCompleteFields""))",Chrome 73.0.3683.86,,2019-04-08 10:46:03,2019-04-08 10:46:03,0.077s,PASSED
delay(2),Chrome 73.0.3683.86,,2019-04-08 10:46:03,2019-04-08 10:46:05,2.005s,PASSED
"click(findTestObject(""Acusera247/Instrument Configuration/dropdown_Group""))",Chrome 73.0.3683.86,,2019-04-08 10:46:05,2019-04-08 10:46:05,0.096s,PASSED
delay(2),Chrome 73.0.3683.86,,2019-04-08 10:46:05,2019-04-08 10:46:07,2.006s,PASSED
"click(findTestObject(""Acusera247/Instrument Configuration/list_Group_Cobas""))",Chrome 73.0.3683.86,,2019-04-08 10:46:07,2019-04-08 10:46:07,0.148s,PASSED
delay(2),Chrome 73.0.3683.86,,2019-04-08 10:46:07,2019-04-08 10:46:09,2.010s,PASSED
"click(findTestObject(""Acusera247/Instrument Configuration/button_SaveNEW""))",Chrome 73.0.3683.86,Click Save to get the Validation Alert Message,2019-04-08 10:46:09,2019-04-08 10:46:09,0.090s,PASSED
delay(1),Chrome 73.0.3683.86,,2019-04-08 10:46:09,2019-04-08 10:46:10,1.005s,PASSED
"verifyElementText(findTestObject(""Acusera247/Instrument Configuration/alert_InformationCompleteFields""), ""Information Please complete all configuration details before saving."", CONTINUE_ON_FAILURE)",Chrome 73.0.3683.86,Verify that the validation message displays the correct text,2019-04-08 10:46:10,2019-04-08 10:46:10,0.068s,PASSED
"click(findTestObject(""Acusera247/Instrument Configuration/alert_InformationCompleteFields""))",Chrome 73.0.3683.86,,2019-04-08 10:46:10,2019-04-08 10:46:10,0.099s,PASSED
delay(2),Chrome 73.0.3683.86,,2019-04-08 10:46:10,2019-04-08 10:46:12,2.009s,PASSED
"click(findTestObject(""Acusera247/Instrument Configuration/dropdown_Model""))",Chrome 73.0.3683.86,,2019-04-08 10:46:12,2019-04-08 10:46:12,0.150s,PASSED
delay(2),Chrome 73.0.3683.86,,2019-04-08 10:46:12,2019-04-08 10:46:14,2.010s,PASSED
"click(findTestObject(""Acusera247/Instrument Configuration/list_Model_Cobas c501""))",Chrome 73.0.3683.86,,2019-04-08 10:46:14,2019-04-08 10:46:14,0.099s,PASSED
delay(2),Chrome 73.0.3683.86,,2019-04-08 10:46:14,2019-04-08 10:46:17,2.005s,PASSED
"click(findTestObject(""Acusera247/Instrument Configuration/button_SaveNEW""))",Chrome 73.0.3683.86,Click the Save button to save the Configuration,2019-04-08 10:46:17,2019-04-08 10:46:17,0.089s,PASSED
delay(2),Chrome 73.0.3683.86,,2019-04-08 10:46:17,2019-04-08 10:46:19,2.010s,PASSED
"verifyElementText(findTestObject(""Acusera247/Instrument Configuration/alert_ErrorDuplicate""), ""Error A configuration with the same name or model already exists. Please enter a different one and try again."")",Chrome 73.0.3683.86,Ensure the validation message displays the correct error text,2019-04-08 10:46:19,2019-04-08 10:46:19,0.093s,PASSED
"click(findTestObject(""Acusera247/Instrument Configuration/alert_ErrorDuplicate""))",Chrome 73.0.3683.86,,2019-04-08 10:46:19,2019-04-08 10:46:19,0.070s,PASSED
delay(2),Chrome 73.0.3683.86,,2019-04-08 10:46:19,2019-04-08 10:46:21,2.012s,PASSED
"click(findTestObject(""Acusera247/Instrument Configuration/button_Clear""))",Chrome 73.0.3683.86,"Click the ""Clear"" button to clear the contents of all the fields",2019-04-08 10:46:21,2019-04-08 10:46:21,0.124s,PASSED
delay(2),Chrome 73.0.3683.86,,2019-04-08 10:46:21,2019-04-08 10:46:23,2.006s,PASSED
"verifyElementAttributeValue(findTestObject(""Acusera247/Instrument Configuration/input_InstrumentName""), ""value"", """", 10)",Chrome 73.0.3683.86,Ensure the Name field has cleared,2019-04-08 10:46:23,2019-04-08 10:46:23,0.128s,PASSED
"verifyElementText(findTestObject(""Acusera247/Instrument Configuration/dropdown_Manufacturer""), ""Select an item..."")",Chrome 73.0.3683.86,Ensure the Manufacturer dropdown has cleared,2019-04-08 10:46:23,2019-04-08 10:46:23,0.071s,PASSED
"verifyElementText(findTestObject(""Acusera247/Instrument Configuration/dropdown_Group""), ""Select an item..."")",Chrome 73.0.3683.86,Ensure the Group dropdown has cleared,2019-04-08 10:46:23,2019-04-08 10:46:23,0.044s,PASSED
"verifyElementText(findTestObject(""Acusera247/Instrument Configuration/dropdown_Model""), ""Select an item..."")",Chrome 73.0.3683.86,Ensure the Model dropdown has cleared,2019-04-08 10:46:23,2019-04-08 10:46:23,0.038s,PASSED
closeBrowser(),Chrome 73.0.3683.86,,2019-04-08 10:46:23,2019-04-08 10:46:24,0.680s,PASSED
,,,,,,
Test Cases/Instrument Configuration/3. 24.7 Instrument Configuration - Update,Chrome 73.0.3683.86,,2019-04-08 10:46:24,2019-04-08 10:47:03,39.042s,PASSED
"openBrowser("""")",Chrome 73.0.3683.86,Prereqs: Have a participant Registered,2019-04-08 10:46:27,2019-04-08 10:46:29,2.775s,PASSED
"navigateToUrl(""http://randoxqcv2-stes.azurewebsites.net/Account/Login?RememberMe=False&SelectionIsEmpty=True"")",Chrome 73.0.3683.86,,2019-04-08 10:46:29,2019-04-08 10:46:31,1.813s,PASSED
maximizeWindow(),Chrome 73.0.3683.86,,2019-04-08 10:46:31,2019-04-08 10:46:32,1.135s,PASSED
"setText(findTestObject(""Acusera247/Login/input_UserNameField""), ""daveau9@sharklasers.com"")",Chrome 73.0.3683.86,,2019-04-08 10:46:32,2019-04-08 10:46:32,0.164s,PASSED
"setEncryptedText(findTestObject(""Acusera247/Login/input_PasswordField""), ""ZM/VR/a+KpRW0CGCfSq1yw=="")",Chrome 73.0.3683.86,,2019-04-08 10:46:32,2019-04-08 10:46:33,0.096s,PASSED
"click(findTestObject(""Acusera247/Login/button_Log in""))",Chrome 73.0.3683.86,,2019-04-08 10:46:33,2019-04-08 10:46:34,1.580s,PASSED
delay(2),Chrome 73.0.3683.86,,2019-04-08 10:46:34,2019-04-08 10:46:36,2.009s,PASSED
"click(findTestObject(""Acusera247/Home Page/button_Acusera24.7""))",Chrome 73.0.3683.86,,2019-04-08 10:46:36,2019-04-08 10:46:38,2.040s,PASSED
delay(2),Chrome 73.0.3683.86,,2019-04-08 10:46:38,2019-04-08 10:46:40,2.010s,PASSED
"click(findTestObject(""Acusera247/Home Page/button_ConfgurationTile""))",Chrome 73.0.3683.86,"Navigate to the ""Instrument Configuration"" page",2019-04-08 10:46:40,2019-04-08 10:46:41,0.332s,PASSED
delay(2),Chrome 73.0.3683.86,,2019-04-08 10:46:41,2019-04-08 10:46:43,2.015s,PASSED
"doubleClick(findTestObject(""Acusera247/Instrument Configuration/td_InstrumentNameRow2""))",Chrome 73.0.3683.86,Ensure you can UPDATE an Instrument Configuration,2019-04-08 10:46:43,2019-04-08 10:46:43,0.336s,PASSED
delay(2),Chrome 73.0.3683.86,,2019-04-08 10:46:43,2019-04-08 10:46:45,2.008s,PASSED
"setText(findTestObject(""Acusera247/Instrument Configuration/input_InstrumentName""), ""Instrument 3"")",Chrome 73.0.3683.86,Enter an Instrument Name,2019-04-08 10:46:45,2019-04-08 10:46:45,0.166s,PASSED
"click(findTestObject(""Acusera247/Instrument Configuration/dropdown_Manufacturer""))",Chrome 73.0.3683.86,Click on the Manufacturer dropdown,2019-04-08 10:46:45,2019-04-08 10:46:46,0.808s,PASSED
delay(2),Chrome 73.0.3683.86,,2019-04-08 10:46:46,2019-04-08 10:46:48,2.013s,PASSED
"click(findTestObject(""Acusera247/Instrument Configuration/list_Manufacturer_Abaxis""), STOP_ON_FAILURE)",Chrome 73.0.3683.86,"Select ""Abaxis"" from the Manufacturer list",2019-04-08 10:46:48,2019-04-08 10:46:48,0.145s,PASSED
delay(2),Chrome 73.0.3683.86,,2019-04-08 10:46:48,2019-04-08 10:46:50,2.006s,PASSED
"click(findTestObject(""Acusera247/Instrument Configuration/dropdown_Group""))",Chrome 73.0.3683.86,"Click on the ""Group"" dropdown",2019-04-08 10:46:50,2019-04-08 10:46:50,0.143s,PASSED
delay(2),Chrome 73.0.3683.86,,2019-04-08 10:46:50,2019-04-08 10:46:52,2.005s,PASSED
"click(findTestObject(""Acusera247/Instrument Configuration/list_Group_Piccolo""))",Chrome 73.0.3683.86,"Select ""Piccolo"" from the Group list",2019-04-08 10:46:52,2019-04-08 10:46:52,0.160s,PASSED
delay(2),Chrome 73.0.3683.86,,2019-04-08 10:46:52,2019-04-08 10:46:54,2.012s,PASSED
"click(findTestObject(""Acusera247/Instrument Configuration/dropdown_Model""))",Chrome 73.0.3683.86,Click on the Model dropdown,2019-04-08 10:46:54,2019-04-08 10:46:55,0.176s,PASSED
delay(2),Chrome 73.0.3683.86,,2019-04-08 10:46:55,2019-04-08 10:46:57,2.011s,PASSED
"click(findTestObject(""Acusera247/Instrument Configuration/list_Model_Piccolo""))",Chrome 73.0.3683.86,"Select ""Piccolo"" from the Model list",2019-04-08 10:46:57,2019-04-08 10:46:57,0.138s,PASSED
delay(1),Chrome 73.0.3683.86,,2019-04-08 10:46:57,2019-04-08 10:46:58,1.008s,PASSED
"click(findTestObject(""Acusera247/Instrument Configuration/button_SaveNEW""))",Chrome 73.0.3683.86,,2019-04-08 10:46:58,2019-04-08 10:46:58,0.143s,PASSED
delay(2),Chrome 73.0.3683.86,,2019-04-08 10:46:58,2019-04-08 10:47:00,2.010s,PASSED
"verifyElementText(findTestObject(""Acusera247/Instrument Configuration/alert_SuccessConfigUpdated""), ""Success! Instrument configuration updated"", CONTINUE_ON_FAILURE)",Chrome 73.0.3683.86,,2019-04-08 10:47:00,2019-04-08 10:47:00,0.092s,PASSED
"click(findTestObject(""Acusera247/Instrument Configuration/alert_SuccessConfigUpdated""))",Chrome 73.0.3683.86,,2019-04-08 10:47:00,2019-04-08 10:47:00,0.072s,PASSED
delay(2),Chrome 73.0.3683.86,,2019-04-08 10:47:00,2019-04-08 10:47:02,2.006s,PASSED
"verifyElementText(findTestObject(""Acusera247/Instrument Configuration/td_InstrumentNameRow2""), ""Instrument 3"")",Chrome 73.0.3683.86,verify that the Instrument Name is saved to the grid view,2019-04-08 10:47:02,2019-04-08 10:47:02,0.054s,PASSED
"verifyElementText(findTestObject(""Acusera247/Instrument Configuration/td_ManufacturerRow2""), ""Abaxis"")",Chrome 73.0.3683.86,verify that the Manufacturer is saved to the grid view,2019-04-08 10:47:02,2019-04-08 10:47:02,0.041s,PASSED
"verifyElementText(findTestObject(""Acusera247/Instrument Configuration/td_GroupRow2""), ""Piccolo"")",Chrome 73.0.3683.86,verify that the Group is saved to the grid view,2019-04-08 10:47:02,2019-04-08 10:47:02,0.046s,PASSED
"verifyElementText(findTestObject(""Acusera247/Instrument Configuration/td_ModelRow2""), ""Piccolo"")",Chrome 73.0.3683.86,verify that the Model is saved to the grid view,2019-04-08 10:47:02,2019-04-08 10:47:02,0.040s,PASSED
closeBrowser(),Chrome 73.0.3683.86,,2019-04-08 10:47:02,2019-04-08 10:47:03,0.690s,PASSED
,,,,,,
Test Cases/Instrument Configuration/4. 24.7 Instrument Configuration - Delete,Chrome 73.0.3683.86,,2019-04-08 10:47:03,2019-04-08 10:47:31,28.142s,PASSED
"openBrowser("""")",Chrome 73.0.3683.86,Prereqs: Have a participant Registered,2019-04-08 10:47:04,2019-04-08 10:47:07,2.720s,PASSED
"navigateToUrl(""http://randoxqcv2-stes.azurewebsites.net/Account/Login?RememberMe=False&SelectionIsEmpty=True"")",Chrome 73.0.3683.86,,2019-04-08 10:47:07,2019-04-08 10:47:09,2.083s,PASSED
maximizeWindow(),Chrome 73.0.3683.86,,2019-04-08 10:47:09,2019-04-08 10:47:10,1.138s,PASSED
"setText(findTestObject(""Acusera247/Login/input_UserNameField""), ""daveau9@sharklasers.com"")",Chrome 73.0.3683.86,,2019-04-08 10:47:10,2019-04-08 10:47:10,0.254s,PASSED
"setEncryptedText(findTestObject(""Acusera247/Login/input_PasswordField""), ""ZM/VR/a+KpRW0CGCfSq1yw=="")",Chrome 73.0.3683.86,,2019-04-08 10:47:10,2019-04-08 10:47:10,0.126s,PASSED
"click(findTestObject(""Acusera247/Login/button_Log in""))",Chrome 73.0.3683.86,,2019-04-08 10:47:10,2019-04-08 10:47:12,1.925s,PASSED
delay(2),Chrome 73.0.3683.86,,2019-04-08 10:47:12,2019-04-08 10:47:14,2.009s,PASSED
"click(findTestObject(""Acusera247/Home Page/button_Acusera24.7""))",Chrome 73.0.3683.86,,2019-04-08 10:47:14,2019-04-08 10:47:17,2.127s,PASSED
delay(2),Chrome 73.0.3683.86,,2019-04-08 10:47:17,2019-04-08 10:47:19,2.010s,PASSED
"click(findTestObject(""Acusera247/Home Page/button_ConfgurationTile""))",Chrome 73.0.3683.86,"Navigate to the ""Instrument Configuration"" page",2019-04-08 10:47:19,2019-04-08 10:47:19,0.392s,PASSED
"click(findTestObject(""Acusera247/Instrument Configuration/delete_InstrumentRow2""))",Chrome 73.0.3683.86,Click on the Delete Icon within the second row,2019-04-08 10:47:19,2019-04-08 10:47:20,0.672s,PASSED
delay(2),Chrome 73.0.3683.86,,2019-04-08 10:47:20,2019-04-08 10:47:22,2.008s,PASSED
"click(findTestObject(""Acusera247/Instrument Configuration/button_NoPopUP""))",Chrome 73.0.3683.86,,2019-04-08 10:47:22,2019-04-08 10:47:22,0.099s,PASSED
delay(2),Chrome 73.0.3683.86,,2019-04-08 10:47:22,2019-04-08 10:47:24,2.004s,PASSED
"click(findTestObject(""Acusera247/Instrument Configuration/delete_InstrumentRow2""))",Chrome 73.0.3683.86,Click on Delete Icon for Instrument 3,2019-04-08 10:47:24,2019-04-08 10:47:24,0.127s,PASSED
delay(2),Chrome 73.0.3683.86,,2019-04-08 10:47:24,2019-04-08 10:47:26,2.006s,PASSED
"click(findTestObject(""Acusera247/Instrument Configuration/button_YesPopUP""))",Chrome 73.0.3683.86,"Click ""Yes"" on the Pop Up modal to delete Instrument 3",2019-04-08 10:47:26,2019-04-08 10:47:26,0.092s,PASSED
delay(2),Chrome 73.0.3683.86,,2019-04-08 10:47:26,2019-04-08 10:47:28,2.010s,PASSED
"verifyElementText(findTestObject(""Acusera247/Instrument Configuration/alert_SuccessConfigDelete""), ""Success! Instrument configuration deleted"", CONTINUE_ON_FAILURE)",Chrome 73.0.3683.86,,2019-04-08 10:47:28,2019-04-08 10:47:28,0.090s,PASSED
"click(findTestObject(""Acusera247/Instrument Configuration/alert_SuccessConfigDelete""))",Chrome 73.0.3683.86,,2019-04-08 10:47:28,2019-04-08 10:47:28,0.077s,PASSED
delay(2),Chrome 73.0.3683.86,,2019-04-08 10:47:28,2019-04-08 10:47:30,2.008s,PASSED
"verifyElementText(findTestObject(""Acusera247/Instrument Configuration/td_InstrumentNameRow1""), ""Instrument 1"")",Chrome 73.0.3683.86,verify that the Instrument Name is saved to the grid view,2019-04-08 10:47:30,2019-04-08 10:47:30,0.092s,PASSED
"verifyElementText(findTestObject(""Acusera247/Instrument Configuration/td_ManufacturerRow1""), ""Roche"")",Chrome 73.0.3683.86,verify that the Manufacturer is saved to the grid view,2019-04-08 10:47:30,2019-04-08 10:47:30,0.055s,PASSED
"verifyElementText(findTestObject(""Acusera247/Instrument Configuration/td_GroupRow1""), ""Cobas"")",Chrome 73.0.3683.86,verify that the Group is saved to the grid view,2019-04-08 10:47:30,2019-04-08 10:47:30,0.045s,PASSED
"verifyElementText(findTestObject(""Acusera247/Instrument Configuration/td_ModelRow1""), ""Cobas c501"")",Chrome 73.0.3683.86,verify that the Model is saved to the grid view,2019-04-08 10:47:30,2019-04-08 10:47:30,0.047s,PASSED
driver = getWebDriver(),Chrome 73.0.3683.86,,2019-04-08 10:47:30,2019-04-08 10:47:30,0.001s,PASSED
"Table = driver.findElement(By.xpath(""//table/tbody""))",Chrome 73.0.3683.86,To locate table,2019-04-08 10:47:30,2019-04-08 10:47:30,0.013s,PASSED
"rows_table = Table.findElements(By.tagName(""tr""))",Chrome 73.0.3683.86,To locate rows of table it will Capture all the rows available in the table,2019-04-08 10:47:30,2019-04-08 10:47:30,0.011s,PASSED
rows_count = rows_table.size(),Chrome 73.0.3683.86,To calculate no of rows In table,2019-04-08 10:47:30,2019-04-08 10:47:30,0.001s,PASSED
rows_count = rows_table.size(),Chrome 73.0.3683.86,,2019-04-08 10:47:30,2019-04-08 10:47:30,0.001s,PASSED
if (rows_count == 1),Chrome 73.0.3683.86,,2019-04-08 10:47:30,2019-04-08 10:47:31,0.694s,PASSED
